[
null,
{"id":1,"expanded":true,"name":"MAP001","order":1,"parentId":0,"scrollX":832,"scrollY":640},
{"id":2,"expanded":true,"name":"MAP002","order":2,"parentId":0,"scrollX":832,"scrollY":640},
{"id":3,"expanded":true,"name":"MAP003","order":3,"parentId":0,"scrollX":595.6363636363636,"scrollY":349.8181818181818},
{"id":4,"expanded":true,"name":"MAP004","order":4,"parentId":0,"scrollX":832,"scrollY":640},
{"id":5,"expanded":true,"name":"MAP005","order":5,"parentId":0,"scrollX":595.6363636363636,"scrollY":349.8181818181818},
{"id":6,"expanded":true,"name":"MAP006","order":6,"parentId":0,"scrollX":595.6363636363636,"scrollY":349.8181818181818},
{"id":7,"expanded":true,"name":"MAP007","order":7,"parentId":0,"scrollX":595.6363636363636,"scrollY":349.8181818181818},
{"id":8,"expanded":true,"name":"MAP008","order":8,"parentId":0,"scrollX":595.6363636363636,"scrollY":349.8181818181818},
{"id":9,"expanded":true,"name":"MAP009","order":9,"parentId":0,"scrollX":595.6363636363636,"scrollY":349.8181818181818},
{"id":10,"expanded":true,"name":"MAP010","order":10,"parentId":0,"scrollX":595.6363636363636,"scrollY":349.8181818181818}
]